…
## Pipe operator: `%>%`

* [Book](http://r4ds.had.co.nz/transform.html#grouped-summaries-with-summarise)

Pipe operator `%>%` passes the result of the previous function to the next function where `.` is. If `.` does not exist, the result will be passed to the first argument of the next function. Hence, following 3 lines of codes are all equivalent.


```r
select(flights, year, month, day)
```

```
## # A tibble: 336,776 x 3
##     year month   day
##    <int> <int> <int>
##  1  2013     1     1
##  2  2013     1     1
##  3  2013     1     1
##  4  2013     1     1
##  5  2013     1     1
##  6  2013     1     1
##  7  2013     1     1
##  8  2013     1     1
##  9  2013     1     1
## 10  2013     1     1
## # ... with 336,766 more rows
```


```r
flights %>% select(., year, month, day)
```

```
## # A tibble: 336,776 x 3
##     year month   day
##    <int> <int> <int>
##  1  2013     1     1
##  2  2013     1     1
##  3  2013     1     1
##  4  2013     1     1
##  5  2013     1     1
##  6  2013     1     1
##  7  2013     1     1
##  8  2013     1     1
##  9  2013     1     1
## 10  2013     1     1
## # ... with 336,766 more rows
```


```r
flights %>% select(year, month, day)
```

```
## # A tibble: 336,776 x 3
##     year month   day
##    <int> <int> <int>
##  1  2013     1     1
##  2  2013     1     1
##  3  2013     1     1
##  4  2013     1     1
##  5  2013     1     1
##  6  2013     1     1
##  7  2013     1     1
##  8  2013     1     1
##  9  2013     1     1
## 10  2013     1     1
## # ... with 336,766 more rows
```
…
---
### Selection

#### Pick observations by their values: `filter()`

* [Book](http://r4ds.had.co.nz/transform.html#filter-rows-with-filter)
* Filter __rows__ with `filter()`.


```r
filter(flights, month == 1, day == 1)
```

```
## # A tibble: 842 x 19
##     year month   day dep_time sched_dep_time dep_delay arr_time sched_arr_time
##    <int> <int> <int>    <int>          <int>     <dbl>    <int>          <int>
##  1  2013     1     1      517            515         2      830            819
##  2  2013     1     1      533            529         4      850            830
##  3  2013     1     1      542            540         2      923            850
##  4  2013     1     1      544            545        -1     1004           1022
##  5  2013     1     1      554            600        -6      812            837
##  6  2013     1     1      554            558        -4      740            728
##  7  2013     1     1      555            600        -5      913            854
##  8  2013     1     1      557            600        -3      709            723
##  9  2013     1     1      557            600        -3      838            846
## 10  2013     1     1      558            600        -2      753            745
## # ... with 832 more rows, and 11 more variables: arr_delay <dbl>,
## #   carrier <chr>, flight <int>, tailnum <chr>, origin <chr>, dest <chr>,
## #   air_time <dbl>, distance <dbl>, hour <dbl>, minute <dbl>, time_hour <dttm>
```
…
```r
filter(flights, arr_delay <= 120, dep_delay <= 120)
```

```
## # A tibble: 316,050 x 19
##     year month   day dep_time sched_dep_time dep_delay arr_time sched_arr_time
##    <int> <int> <int>    <int>          <int>     <dbl>    <int>          <int>
##  1  2013     1     1      517            515         2      830            819
##  2  2013     1     1      533            529         4      850            830
##  3  2013     1     1      542            540         2      923            850
##  4  2013     1     1      544            545        -1     1004           1022
##  5  2013     1     1      554            600        -6      812            837
##  6  2013     1     1      554            558        -4      740            728
##  7  2013     1     1      555            600        -5      913            854
##  8  2013     1     1      557            600        -3      709            723
##  9  2013     1     1      557            600        -3      838            846
## 10  2013     1     1      558            600        -2      753            745
## # ... with 316,040 more rows, and 11 more variables: arr_delay <dbl>,
## #   carrier <chr>, flight <int>, tailnum <chr>, origin <chr>, dest <chr>,
## #   air_time <dbl>, distance <dbl>, hour <dbl>, minute <dbl>, time_hour <dttm>
```
…
* [Book](http://r4ds.had.co.nz/transform.html#grouping-by-multiple-variables)


```r
daily <- group_by(flights, year, month, day)
(per_day   <- summarise(daily, flights = n()))
```

```
## `summarise()` has grouped output by 'year', 'month'. You can override using the `.groups` argument.
```

```
## # A tibble: 365 x 4
## # Groups:   year, month [12]
##     year month   day flights
##    <int> <int> <int>   <int>
##  1  2013     1     1     842
##  2  2013     1     2     943
##  3  2013     1     3     914
##  4  2013     1     4     915
##  5  2013     1     5     720
##  6  2013     1     6     832
##  7  2013     1     7     933
##  8  2013     1     8     899
##  9  2013     1     9     902
## 10  2013     1    10     932
## # ... with 355 more rows
```
…
---
### Reordering
#### Reorder the observations : `arrange()`
* [Book](http://r4ds.had.co.nz/transform.html#arrange-rows-with-arrange)
* `arrange()` changes the order of __rows__.
* It takes a data frame and a set of column names (or more complicated expressions) to order by.


```r
arrange(flights, year, month, day)
```

```
## # A tibble: 336,776 x 19
##     year month   day dep_time sched_dep_time dep_delay arr_time sched_arr_time
##    <int> <int> <int>    <int>          <int>     <dbl>    <int>          <int>
##  1  2013     1     1      517            515         2      830            819
##  2  2013     1     1      533            529         4      850            830
##  3  2013     1     1      542            540         2      923            850
##  4  2013     1     1      544            545        -1     1004           1022
##  5  2013     1     1      554            600        -6      812            837
##  6  2013     1     1      554            558        -4      740            728
##  7  2013     1     1      555            600        -5      913            854
##  8  2013     1     1      557            600        -3      709            723
##  9  2013     1     1      557            600        -3      838            846
## 10  2013     1     1      558            600        -2      753            745
## # ... with 336,766 more rows, and 11 more variables: arr_delay <dbl>,
## #   carrier <chr>, flight <int>, tailnum <chr>, origin <chr>, dest <chr>,
## #   air_time <dbl>, distance <dbl>, hour <dbl>, minute <dbl>, time_hour <dttm>
```


```r
arrange(flights, desc(arr_delay))
```

```
## # A tibble: 336,776 x 19
##     year month   day dep_time sched_dep_time dep_delay arr_time sched_arr_time
##    <int> <int> <int>    <int>          <int>     <dbl>    <int>          <int>
##  1  2013     1     9      641            900      1301     1242           1530
##  2  2013     6    15     1432           1935      1137     1607           2120
##  3  2013     1    10     1121           1635      1126     1239           1810
##  4  2013     9    20     1139           1845      1014     1457           2210
##  5  2013     7    22      845           1600      1005     1044           1815
##  6  2013     4    10     1100           1900       960     1342           2211
##  7  2013     3    17     2321            810       911      135           1020
##  8  2013     7    22     2257            759       898      121           1026
##  9  2013    12     5      756           1700       896     1058           2020
## 10  2013     5     3     1133           2055       878     1250           2215
## # ... with 336,766 more rows, and 11 more variables: arr_delay <dbl>,
## #   carrier <chr>, flight <int>, tailnum <chr>, origin <chr>, dest <chr>,
## #   air_time <dbl>, distance <dbl>, hour <dbl>, minute <dbl>, time_hour <dttm>
```


```r
x <- factor(letters)
arrange(tibble(x), desc(x))
```

```
## # A tibble: 26 x 1
##    x    
##    <fct>
##  1 z    
##  2 y    
##  3 x    
##  4 w    
##  5 v    
##  6 u    
##  7 t    
##  8 s    
##  9 r    
## 10 q    
## # ... with 16 more rows
```
…
```r
not_cancelled <- flights %>% 
  filter(!is.na(dep_delay), !is.na(arr_delay))

not_cancelled %>% 
  group_by(year, month, day) %>% 
  summarise(mean = mean(dep_delay))
```

```
## `summarise()` has grouped output by 'year', 'month'. You can override using the `.groups` argument.
```

```
## # A tibble: 365 x 4
## # Groups:   year, month [12]
##     year month   day  mean
##    <int> <int> <int> <dbl>
##  1  2013     1     1 11.4 
##  2  2013     1     2 13.7 
##  3  2013     1     3 10.9 
##  4  2013     1     4  8.97
##  5  2013     1     5  5.73
##  6  2013     1     6  7.15
##  7  2013     1     7  5.42
##  8  2013     1     8  2.56
##  9  2013     1     9  2.30
## 10  2013     1    10  2.84
## # ... with 355 more rows
```
…
#### Grouped filters
* [Book](http://r4ds.had.co.nz/transform.html#grouped-mutates-and-filters)
* Combination of `group_by()` with `filter()` or `mutate()`.


```r
flights_sml <- 
  select(flights, year:day, ends_with("delay"), distance, air_time)
flights_sml %>% 
  group_by(year, month, day) %>%
  filter(rank(desc(arr_delay)) < 10)
```

```
## # A tibble: 3,306 x 7
## # Groups:   year, month, day [365]
##     year month   day dep_delay arr_delay distance air_time
##    <int> <int> <int>     <dbl>     <dbl>    <dbl>    <dbl>
##  1  2013     1     1       853       851      184       41
##  2  2013     1     1       290       338     1134      213
##  3  2013     1     1       260       263      266       46
##  4  2013     1     1       157       174      213       60
##  5  2013     1     1       216       222      708      121
##  6  2013     1     1       255       250      589      115
##  7  2013     1     1       285       246     1085      146
##  8  2013     1     1       192       191      199       44
##  9  2013     1     1       379       456     1092      222
## 10  2013     1     2       224       207      550       94
## # ... with 3,296 more rows
```
…
```
## `summarise()` has grouped output by 'dest', 'year', 'month'. You can override using the `.groups` argument.
```


```r
recommend_times
```

```
## # A tibble: 827 x 6
## # Groups:   dest, year, month [27]
##    dest   year month   day recommend_time delay
##    <chr> <int> <int> <int>          <dbl> <dbl>
##  1 ATL    2013     6     1             13    -6
##  2 ATL    2013     6     2             13    -8
##  3 ATL    2013     6     3             14    -6
##  4 ATL    2013     6     4             10    -8
##  5 ATL    2013     6     5             12    -8
##  6 ATL    2013     6     6              9    -7
##  7 ATL    2013     6     7             15    -5
##  8 ATL    2013     6     8             15   -10
##  9 ATL    2013     6     9             10    -8
## 10 ATL    2013     6    10              9    -4
## # ... with 817 more rows
```
…
