HW2
…
dest_air_time %>%
  mutate(diff = min_air_time - mean_air_time) %>%
  arrange(diff, air_time) %>%
  select(dest, air_time, min_air_time, mean_air_time, diff, relative)

## # A tibble: 336,776 × 6
##    dest  air_time min_air_time mean_air_time  diff relative
##    <chr>    <dbl>        <dbl>         <dbl> <dbl>    <dbl>
##  1 MSP         93           93          151. -57.6    1    
##  2 MSP        122           93          151. -57.6    0.762
##  3 MSP        123           93          151. -57.6    0.756
##  4 MSP        123           93          151. -57.6    0.756
##  5 MSP        123           93          151. -57.6    0.756
##  6 MSP        124           93          151. -57.6    0.75 
##  7 MSP        125           93          151. -57.6    0.744
##  8 MSP        125           93          151. -57.6    0.744
##  9 MSP        125           93          151. -57.6    0.744
## 10 MSP        126           93          151. -57.6    0.738
## # ℹ 336,766 more rows
…
dest_air_time %>%
  mutate(
    sched_air_time = ifelse(
      sched_arr_time > sched_dep_time,
      sched_arr_time - sched_dep_time,
      sched_arr_time - sched_dep_time + 1440
    ),
    diff = air_time - sched_air_time
  ) %>%
  select(dest, air_time, sched_dep_time,
    sched_arr_time, sched_air_time, diff
  ) %>%
  arrange(desc(diff))

## # A tibble: 336,776 × 6
##    dest  air_time sched_dep_time sched_arr_time sched_air_time  diff
##    <chr>    <dbl>          <dbl>          <dbl>          <dbl> <dbl>
##  1 HNL        695            815           1116            301   394
##  2 HNL        666            810           1095            285   381
##  3 HNL        650            600            875            275   375
##  4 HNL        671            815           1116            301   370
##  5 HNL        640            600            875            275   365
##  6 HNL        671            600            910            310   361
##  7 HNL        661            815           1116            301   360
##  8 HNL        640            600            880            280   360
##  9 HNL        634            600            875            275   359
## 10 HNL        629            600            870            270   359
## # ℹ 336,766 more rows
…
#평균 도착 지연이 낮은 순으로 랭킹을 매기자.
carrier_rank <- flights %>%
  filter(dest %in% two_carrier_dest) %>%
  group_by(dest, carrier) %>%
  summarise(mean_delay = mean(arr_delay, na.rm = TRUE)) %>%
  arrange(dest, mean_delay)

## `summarise()` has grouped output by 'dest'. You can override using the
## `.groups` argument.

carrier_rank

## # A tibble: 285 × 3
## # Groups:   dest [76]
##    dest  carrier mean_delay
##    <chr> <chr>        <dbl>
##  1 ATL   9E           0.857
##  2 ATL   WN           6.90 
##  3 ATL   DL           7.42 
##  4 ATL   UA          10.5  
##  5 ATL   MQ          14.0  
##  6 ATL   EV          19.6  
##  7 ATL   FL          20.7  
##  8 AUS   WN         -11.2  
##  9 AUS   9E          -3.5  
## 10 AUS   DL           1.41 
## # ℹ 275 more rows

#목적지별로 평균지연이 낮은 순으로 정렬하였다.

carrier_rank %>%
  group_by(dest) %>%
  summarise(
    good_carrier = first(carrier),
    mean_delay = first(mean_delay)
  )

## # A tibble: 76 × 3
##    dest  good_carrier mean_delay
##    <chr> <chr>             <dbl>
##  1 ATL   9E                0.857
##  2 AUS   WN              -11.2  
##  3 AVL   9E              -12.1  
##  4 BDL   EV                6.78 
##  5 BGR   EV                8.03 
##  6 BNA   DL              -27    
##  7 BOS   EV               -4.01 
##  8 BQN   B6                6.94 
##  9 BTV   9E               -2.5  
## 10 BUF   DL              -11.7  
## # ℹ 66 more rows
…
