Quiz 1
…
Expand the following calls to count() to instead use group_by(), summarize(), and arrange().

The code for each sub-question must be written in a single pipeline(2 pts each), using pipe operator(%>%).

[7점] flights %>% count(dest, sort=TRUE)

[7점] flights %>% count(tailnum, wt=distance)

#(a)
flights %>% 
    group_by(dest) %>% 
    summarise(n=n()) %>% 
    arrange(desc(n))

## # A tibble: 105 × 2
##    dest      n
##    <chr> <int>
##  1 ORD   17283
##  2 ATL   17215
##  3 LAX   16174
##  4 BOS   15508
##  5 MCO   14082
##  6 CLT   14064
##  7 SFO   13331
##  8 FLL   12055
##  9 MIA   11728
## 10 DCA    9705
## # ℹ 95 more rows

#(b)
flights %>% 
    group_by(tailnum) %>% 
    summarise(n=sum(distance))

## # A tibble: 4,044 × 2
##    tailnum      n
##    <chr>    <dbl>
##  1 D942DN    3418
##  2 N0EGMQ  250866
##  3 N10156  115966
##  4 N102UW   25722
##  5 N103US   24619
##  6 N104UW   25157
##  7 N10575  150194
##  8 N105UW   23618
##  9 N107US   21677
## 10 N108UW   32070
## # ℹ 4,034 more rows
…
[4점] 각 대상자의 최종 점수는 5명의 심사위원이 부여한 점수 중 최저점 1개를 제외한 4개 점수의 평균값으로 사용한다. 모든 대상자의 최종점수를 산출하여 fin 열로 데이터에 추가하시오.

최저점이 동점인 경우 1개만 제외하며, 결과를 score_fin으로 저장하고 출력한다.

new_min <- function(v1,v2,v3,v4,v5){
    return(pmap_dbl(list(v1,v2,v3,v4,v5),min))
}

score_fin <- score %>% 
    mutate(fin=(ev1+ev2+ev3+ev4+ev5-new_min(ev1,ev2,ev3,ev4,ev5))/4)

score_fin

## # A tibble: 191 × 8
##    id_num group   ev1   ev2   ev3   ev4   ev5   fin
##    <chr>  <chr> <dbl> <dbl> <dbl> <dbl> <dbl> <dbl>
##  1 T0034  A      71.1  58    45.3  51    80.9  65.2
##  2 T0149  B      66.9  42.2  53.8  70.8  85.7  69.3
##  3 T0066  A      47.6  53.8  43.6  51.4  62.8  53.9
##  4 T0148  C      48    45.6  41.7  48.7  58.7  50.2
##  5 T0177  A      83.9  61.9  65.3  69.8  84.6  75.9
##  6 T0101  B      56.1  49.5  45.5  52.2  66.2  56  
##  7 T0104  A      70.9  56.2  36.4  54.4  59    60.1
##  8 T0046  C      44.8  50.5  42    47.4  60    50.7
##  9 T0057  A      61.2  58.5  53.5  59.8  75.3  63.7
## 10 T0013  A      69.7  63.3  57.4  66.1  80.3  69.9
## # ℹ 181 more rows
…
